riscv/test/output.vcd
$version Generated by VerilatedVcd $end
$date Fri Jan  8 01:09:35 2016
 $end
$timescale 1ns $end

 $scope module TOP $end
  $var wire  1 $ a $end
  $var wire  1 % b $end
  $var wire  1 # clk $end
  $var wire  1 ' out1 $end
  $var wire  1 & sel $end
  $scope module v $end
   $var wire  1 $ a $end
   $var wire  1 % b $end
   $var wire  1 # clk $end
   $var wire  1 ' out1 $end
   $var wire  1 ( out1_next $end
   $var wire  1 & sel $end
   $scope module f $end
    $var wire  1 # clk $end
    $var wire  1 ( d $end
    $var wire  1 ' q $end
   $upscope $end
  $upscope $end
 $upscope $end
$enddefinitions $end


#0
1$
0%
1&
1(
1#
0'
#1
0#
#2
1#
1'
#3
0#
#4
1#
#5
0#
#6
1#
#7
0#
#8
1#
#9
0#
#10
0&
0(
1#
#11
0#
#12
1#
0'
#13
0#
#14
1#
#15
0#
#16
1#
#17
0#
#18
1#
#19
0#
#20
0$
1%
1&
1#
#21
0#
#22
1$
1(
1#
#23
0#
#24
0$
0(
1#
1'
#25
0#
#26
1$
1(
1#
0'
#27
0#
#28
0$
0(
1#
1'
#29
0#
#30
1$
0&
1(
1#
0'
#31
0#
#32
0$
1#
1'
#33
0#
#34
1$
1#
#35
0#
#36
0$
1#
#37
0#
#38
1$
1#
