lab3/output.vcd
$version Generated by VerilatedVcd $end
$date Thu Mar 10 19:50:50 2016
 $end
$timescale 1ns $end

 $scope module TOP $end
  $var wire  1 "[ clk $end
  $var wire 64 "l debug_dest [63:0] $end
  $var wire  1 "o debug_dest_long $end
  $var wire  5 "n debug_dest_rd [4:0] $end
  $var wire  1 "k debug_dest_valid $end
  $var wire 64 "i debug_pc_ex [63:0] $end
  $var wire 256 "^ icache_ack_data [255:0] $end
  $var wire  1 "] icache_ack_data_valid $end
  $var wire 64 "f icache_req_addr [63:0] $end
  $var wire  1 "h icache_req_addr_valid $end
  $var wire  1 "\ reset $end
  $scope module v $end
   $var wire  1 "[ clk $end
   $var wire 64 "l debug_dest [63:0] $end
   $var wire  1 "o debug_dest_long $end
   $var wire  5 "n debug_dest_rd [4:0] $end
   $var wire  1 "k debug_dest_valid $end
   $var wire 64 "i debug_pc_ex [63:0] $end
   $var wire 32 M decode_insn [31:0] $end
   $var wire 64 N decode_pc [63:0] $end
   $var wire  1 ' decode_retry $end
   $var wire 64 P decode_sign_ext [63:0] $end
   $var wire 64 R decode_src1 [63:0] $end
   $var wire 64 T decode_src2 [63:0] $end
   $var wire  1 L decode_valid $end
   $var wire 64 Y dest [63:0] $end
   $var wire  1 X dest_long $end
   $var wire  5 V dest_rd [4:0] $end
   $var wire  1 W dest_valid $end
   $var wire 63 $ execute_pc [62:0] $end
   $var wire  1 & execute_retry $end
   $var wire  1 K execute_valid $end
   $var wire 32 H fetch_insn [31:0] $end
   $var wire  1 # fetch_insn_retry $end
   $var wire  1 G fetch_insn_valid $end
   $var wire 63 I fetch_pc [62:0] $end
   $var wire 256 "^ icache_ack_data [255:0] $end
   $var wire  1 "] icache_ack_data_valid $end
   $var wire 64 "f icache_req_addr [63:0] $end
   $var wire  1 "h icache_req_addr_valid $end
   $var wire 59 [ req_addr [58:0] $end
   $var wire  1 "\ reset $end
   $scope module d $end
    $var wire  1 "[ clk $end
    $var wire 32 M decode_insn [31:0] $end
    $var wire 64 N decode_pc [63:0] $end
    $var wire  1 ' decode_retry $end
    $var wire 64 P decode_sign_ext [63:0] $end
    $var wire 64 R decode_src1 [63:0] $end
    $var wire 64 T decode_src2 [63:0] $end
    $var wire  1 L decode_valid $end
    $var wire 64 Y dest [63:0] $end
    $var wire  1 X dest_long $end
    $var wire  5 V dest_rd [4:0] $end
    $var wire  1 W dest_valid $end
    $var wire 32 H fetch_insn [31:0] $end
    $var wire  1 # fetch_insn_retry $end
    $var wire  1 G fetch_insn_valid $end
    $var wire 64 _ fetch_pc [63:0] $end
    $var wire  1 "\ reset $end
    $var wire  5 a rs1 [4:0] $end
    $var wire  5 b rs2 [4:0] $end
    $scope module d_insn $end
     $var wire 32 "r Bits [31:0] $end
     $var wire  1 "[ clk $end
     $var wire 32 H d [31:0] $end
     $var wire 32 M q [31:0] $end
     $var wire  1 "\ reset $end
     $var wire  1 G we $end
    $upscope $end
    $scope module d_pc $end
     $var wire 32 "t Bits [31:0] $end
     $var wire 64 "u Reset_Value [63:0] $end
     $var wire  1 "[ clk $end
     $var wire 64 _ d [63:0] $end
     $var wire 64 N q [63:0] $end
     $var wire  1 "\ reset $end
     $var wire  1 G we $end
    $upscope $end
    $scope module d_valid $end
     $var wire 32 "p Bits [31:0] $end
     $var wire  1 "[ clk $end
     $var wire  1 G d [0:0] $end
     $var wire  1 L q [0:0] $end
     $var wire  1 "\ reset $end
    $upscope $end
    $scope module f_retry $end
     $var wire 32 "p Bits [31:0] $end
     $var wire  1 "[ clk $end
     $var wire  1 ' d [0:0] $end
     $var wire  1 # q [0:0] $end
     $var wire  1 "\ reset $end
    $upscope $end
    $scope module r $end
     $var wire  1 "[ clk $end
     $var wire 64 R data1 [63:0] $end
     $var wire 64 T data2 [63:0] $end
     $var wire 64 Y dest [63:0] $end
     $var wire  1 X dest_long $end
     $var wire  5 V rd [4:0] $end
     $var wire  1 "\ reset $end
     $var wire 64 c rf(0) [63:0] $end
     $var wire 64 e rf(1) [63:0] $end
     $var wire 64 w rf(10) [63:0] $end
     $var wire 64 y rf(11) [63:0] $end
     $var wire 64 { rf(12) [63:0] $end
     $var wire 64 } rf(13) [63:0] $end
     $var wire 64 "! rf(14) [63:0] $end
     $var wire 64 "# rf(15) [63:0] $end
     $var wire 64 "% rf(16) [63:0] $end
     $var wire 64 "' rf(17) [63:0] $end
     $var wire 64 ") rf(18) [63:0] $end
     $var wire 64 "+ rf(19) [63:0] $end
     $var wire 64 g rf(2) [63:0] $end
     $var wire 64 "- rf(20) [63:0] $end
     $var wire 64 "/ rf(21) [63:0] $end
     $var wire 64 "1 rf(22) [63:0] $end
     $var wire 64 "3 rf(23) [63:0] $end
     $var wire 64 "5 rf(24) [63:0] $end
     $var wire 64 "7 rf(25) [63:0] $end
     $var wire 64 "9 rf(26) [63:0] $end
     $var wire 64 "; rf(27) [63:0] $end
     $var wire 64 "= rf(28) [63:0] $end
     $var wire 64 "? rf(29) [63:0] $end
     $var wire 64 i rf(3) [63:0] $end
     $var wire 64 "A rf(30) [63:0] $end
     $var wire 64 "C rf(31) [63:0] $end
     $var wire 64 k rf(4) [63:0] $end
     $var wire 64 m rf(5) [63:0] $end
     $var wire 64 o rf(6) [63:0] $end
     $var wire 64 q rf(7) [63:0] $end
     $var wire 64 s rf(8) [63:0] $end
     $var wire 64 u rf(9) [63:0] $end
     $var wire  5 * rf_cntr [4:0] $end
     $var wire  5 a rs1 [4:0] $end
     $var wire  5 b rs2 [4:0] $end
     $var wire  1 W we $end
    $upscope $end
    $scope module s $end
     $var wire 13 - branchimm [12:0] $end
     $var wire  1 "[ clk $end
     $var wire 12 "E imm12 [11:0] $end
     $var wire 20 "F imm20 [19:0] $end
     $var wire 32 H insn [31:0] $end
     $var wire  1 G insn_valid $end
     $var wire 21 . jalimm [20:0] $end
     $var wire  7 "G op [6:0] $end
     $var wire  1 "\ reset $end
     $var wire 64 P sign_ext [63:0] $end
     $var wire 64 + sign_ext_next [63:0] $end
     $scope module f_sign_ext $end
      $var wire 32 "t Bits [31:0] $end
      $var wire  1 "[ clk $end
      $var wire 64 + d [63:0] $end
      $var wire 64 P q [63:0] $end
      $var wire  1 "\ reset $end
      $var wire  1 G we $end
     $upscope $end
    $upscope $end
   $upscope $end
   $scope module e $end
    $var wire 64 "L branch_target_pc [63:0] $end
    $var wire  1 "K branch_target_valid $end
    $var wire  1 "[ clk $end
    $var wire 32 M decode_insn [31:0] $end
    $var wire 64 N decode_pc [63:0] $end
    $var wire  1 ' decode_retry $end
    $var wire 64 P decode_sign_ext [63:0] $end
    $var wire 64 R decode_src1 [63:0] $end
    $var wire 64 T decode_src2 [63:0] $end
    $var wire  1 L decode_valid $end
    $var wire 64 Y dest [63:0] $end
    $var wire  1 X dest_long $end
    $var wire  5 V dest_rd [4:0] $end
    $var wire  5 "H dest_rd_next [4:0] $end
    $var wire  1 W dest_valid $end
    $var wire 63 $ execute_pc [62:0] $end
    $var wire  1 & execute_retry $end
    $var wire  1 K execute_valid $end
    $var wire 64 "I pc [63:0] $end
    $var wire  1 "\ reset $end
    $scope module a $end
     $var wire  7 "x AUIPC [6:0] $end
     $var wire  7 "| BRANCH [6:0] $end
     $var wire  3 #! FUNCT3_ADD [2:0] $end
     $var wire  3 #! FUNCT3_ADDI [2:0] $end
     $var wire  3 #( FUNCT3_AND [2:0] $end
     $var wire  3 #( FUNCT3_ANDI [2:0] $end
     $var wire  3 #! FUNCT3_BEQ [2:0] $end
     $var wire  3 #& FUNCT3_BGE [2:0] $end
     $var wire  3 #( FUNCT3_BGEU [2:0] $end
     $var wire  3 #% FUNCT3_BLT [2:0] $end
     $var wire  3 #' FUNCT3_BLTU [2:0] $end
     $var wire  3 #" FUNCT3_BNE [2:0] $end
     $var wire  3 #' FUNCT3_OR [2:0] $end
     $var wire  3 #' FUNCT3_ORI [2:0] $end
     $var wire  3 #" FUNCT3_SLL [2:0] $end
     $var wire  3 #" FUNCT3_SLLI [2:0] $end
     $var wire  3 ## FUNCT3_SLT [2:0] $end
     $var wire  3 ## FUNCT3_SLTI [2:0] $end
     $var wire  3 #$ FUNCT3_SLTIU [2:0] $end
     $var wire  3 #$ FUNCT3_SLTU [2:0] $end
     $var wire  3 #& FUNCT3_SRA [2:0] $end
     $var wire  3 #& FUNCT3_SRAI [2:0] $end
     $var wire  3 #& FUNCT3_SRL [2:0] $end
     $var wire  3 #& FUNCT3_SRLI [2:0] $end
     $var wire  3 #! FUNCT3_SUB [2:0] $end
     $var wire  3 #% FUNCT3_XOR [2:0] $end
     $var wire  3 #% FUNCT3_XORI [2:0] $end
     $var wire  6 #+ FUNCT6_SLLI [5:0] $end
     $var wire  6 #, FUNCT6_SRAI [5:0] $end
     $var wire  6 #+ FUNCT6_SRLI [5:0] $end
     $var wire  7 #) FUNCT7_ADD [6:0] $end
     $var wire  7 #) FUNCT7_AND [6:0] $end
     $var wire  7 #) FUNCT7_DC [6:0] $end
     $var wire  7 #) FUNCT7_OR [6:0] $end
     $var wire  7 #) FUNCT7_SLL [6:0] $end
     $var wire  7 #) FUNCT7_SLLI [6:0] $end
     $var wire  7 #) FUNCT7_SLT [6:0] $end
     $var wire  7 #) FUNCT7_SLTU [6:0] $end
     $var wire  7 #* FUNCT7_SRA [6:0] $end
     $var wire  7 #* FUNCT7_SRAI [6:0] $end
     $var wire  7 #) FUNCT7_SRL [6:0] $end
     $var wire  7 #) FUNCT7_SRLI [6:0] $end
     $var wire  7 #* FUNCT7_SUB [6:0] $end
     $var wire  7 #) FUNCT7_XOR [6:0] $end
     $var wire  7 "~ JAL [6:0] $end
     $var wire  7 "} JALR [6:0] $end
     $var wire  7 "z OP [6:0] $end
     $var wire  7 "{ OP_32 [6:0] $end
     $var wire  7 "w OP_IMM [6:0] $end
     $var wire  7 "y OP_IMM_32 [6:0] $end
     $var wire 64 "L branch_target [63:0] $end
     $var wire 64 4 branch_target_next [63:0] $end
     $var wire  1 & branch_target_retry $end
     $var wire  1 "K branch_target_valid $end
     $var wire  1 3 branch_target_valid_next $end
     $var wire  1 "[ clk $end
     $var wire 64 Y dest [63:0] $end
     $var wire  1 X dest_long $end
     $var wire  1 0 dest_long_next $end
     $var wire 64 1 dest_next [63:0] $end
     $var wire  1 W dest_valid $end
     $var wire  1 / dest_valid_next $end
     $var wire  3 "R funct3 [2:0] $end
     $var wire  7 "S funct7 [6:0] $end
     $var wire 32 M insn [31:0] $end
     $var wire  1 ' insn_retry $end
     $var wire  1 L insn_valid $end
     $var wire  7 "P opcode [6:0] $end
     $var wire 64 N pc [63:0] $end
     $var wire  1 "\ reset $end
     $var wire  5 "Q shamt [4:0] $end
     $var wire  6 "T shamt6 [5:0] $end
     $var wire 64 P sign_ext [63:0] $end
     $var wire 64 R src1 [63:0] $end
     $var wire 64 T src2 [63:0] $end
     $scope module f1 $end
      $var wire 32 #- Bits [31:0] $end
      $var wire  1 "[ clk $end
      $var wire 65 6 d [64:0] $end
      $var wire 65 "U q [64:0] $end
      $var wire  1 "\ reset $end
      $var wire  1 L we $end
     $upscope $end
     $scope module f2 $end
      $var wire 32 #. Bits [31:0] $end
      $var wire  1 "[ clk $end
      $var wire 66 9 d [65:0] $end
      $var wire 66 "X q [65:0] $end
      $var wire  1 "\ reset $end
     $upscope $end
     $scope module f_retry $end
      $var wire 32 "p Bits [31:0] $end
      $var wire  1 "[ clk $end
      $var wire  1 & d [0:0] $end
      $var wire  1 ' q [0:0] $end
      $var wire  1 "\ reset $end
     $upscope $end
    $upscope $end
    $scope module dregflop $end
     $var wire 32 #/ Bits [31:0] $end
     $var wire  1 "[ clk $end
     $var wire  5 "H d [4:0] $end
     $var wire  5 V q [4:0] $end
     $var wire  1 "\ reset $end
     $var wire  1 L we $end
    $upscope $end
    $scope module f_pc $end
     $var wire 32 "t Bits [31:0] $end
     $var wire 64 "u Reset_Value [63:0] $end
     $var wire  1 "[ clk $end
     $var wire 64 "N d [63:0] $end
     $var wire 64 "I q [63:0] $end
     $var wire  1 "\ reset $end
     $var wire  1 L we $end
    $upscope $end
    $scope module f_retry $end
     $var wire 32 "p Bits [31:0] $end
     $var wire  1 "[ clk $end
     $var wire  1 & d [0:0] $end
     $var wire  1 ' q [0:0] $end
     $var wire  1 "\ reset $end
    $upscope $end
    $scope module f_valid $end
     $var wire 32 "p Bits [31:0] $end
     $var wire 32 "p Reset_Value [31:0] $end
     $var wire  1 "[ clk $end
     $var wire  1 L d [0:0] $end
     $var wire  1 K q [0:0] $end
     $var wire  1 "\ reset $end
    $upscope $end
   $upscope $end
   $scope module f $end
    $var wire  1 "[ clk $end
    $var wire 63 $ execute_pc [62:0] $end
    $var wire  1 & execute_retry $end
    $var wire  1 K execute_valid $end
    $var wire 32 H fetch_insn [31:0] $end
    $var wire  1 # fetch_insn_retry $end
    $var wire  1 G fetch_insn_valid $end
    $var wire 63 I fetch_pc [62:0] $end
    $var wire 256 "^ icache_ack_data [255:0] $end
    $var wire  1 "] icache_ack_data_valid $end
    $var wire 59 [ icache_req_addr [58:0] $end
    $var wire  1 "h icache_req_addr_valid $end
    $var wire  1 "\ reset $end
    $scope module f_pc $end
     $var wire 32 "s Bits [31:0] $end
     $var wire  1 "[ clk $end
     $var wire 63 $ d [62:0] $end
     $var wire 63 I q [62:0] $end
     $var wire  1 "\ reset $end
    $upscope $end
    $scope module f_retry $end
     $var wire 32 "p Bits [31:0] $end
     $var wire  1 "[ clk $end
     $var wire  1 # d [0:0] $end
     $var wire  1 & q [0:0] $end
     $var wire  1 "\ reset $end
    $upscope $end
    $scope module i $end
     $var wire  6 ] clear_idx [5:0] $end
     $var wire  1 "[ clk $end
     $var wire 32 H core_ack_insn [31:0] $end
     $var wire 32 @ core_ack_insn_next [31:0] $end
     $var wire  1 G core_ack_insn_valid $end
     $var wire  1 ? core_ack_insn_valid_next $end
     $var wire 63 $ core_req_pc [62:0] $end
     $var wire  1 K core_req_pc_valid $end
     $var wire  1 = ic_data_we $end
     $var wire  1 > ic_tag_we $end
     $var wire  1 < ic_valid_we $end
     $var wire 256 "^ icache_ack_data [255:0] $end
     $var wire  1 "] icache_ack_data_valid $end
     $var wire 59 [ icache_req_addr [58:0] $end
     $var wire 59 ( icache_req_addr_next [58:0] $end
     $var wire  1 "h icache_req_addr_valid $end
     $var wire  1 A icache_req_addr_valid_next $end
     $var wire  6 C pc_req_index [5:0] $end
     $var wire  5 B pc_req_offset [4:0] $end
     $var wire 53 D pc_req_tag [52:0] $end
     $var wire  1 ^ pc_valid $end
     $var wire  1 F pc_valid_next $end
     $var wire  1 "\ reset $end
     $scope module f_ack_insn $end
      $var wire 32 "r Bits [31:0] $end
      $var wire  1 "[ clk $end
      $var wire 32 @ d [31:0] $end
      $var wire 32 H q [31:0] $end
      $var wire  1 "\ reset $end
     $upscope $end
     $scope module f_ack_insn_valid $end
      $var wire 32 "p Bits [31:0] $end
      $var wire  1 "[ clk $end
      $var wire  1 ? d [0:0] $end
      $var wire  1 G q [0:0] $end
      $var wire  1 "\ reset $end
     $upscope $end
     $scope module f_icache_req $end
      $var wire 32 "q Bits [31:0] $end
      $var wire  1 "[ clk $end
      $var wire 59 ( d [58:0] $end
      $var wire 59 [ q [58:0] $end
      $var wire  1 "\ reset $end
     $upscope $end
     $scope module f_icache_valid $end
      $var wire 32 "p Bits [31:0] $end
      $var wire  1 "[ clk $end
      $var wire  1 A d [0:0] $end
      $var wire  1 "h q [0:0] $end
      $var wire  1 "\ reset $end
     $upscope $end
     $scope module f_pc_valid $end
      $var wire 32 "p Bits [31:0] $end
      $var wire  1 "[ clk $end
      $var wire  1 F d [0:0] $end
      $var wire  1 ^ q [0:0] $end
      $var wire  1 "\ reset $end
     $upscope $end
    $upscope $end
   $upscope $end
  $upscope $end
 $upscope $end
$enddefinitions $end


#0
b00000000000000000000000000000000000000000000000000000000000 (
b0 #
b00000 *
b0000000000000000000000000000000000000000000000000000000000000000 +
b0000000000000 -
b000000000000000000000 .
b000000000000000000000000000000000000000000000000000000000000000 $
0/
00
b0000000000000000000000000000000000000000000000000000000000000000 1
03
b0000000000000000000000000000000000000000000000000000000000000000 4
b0 &
b0 '
b00000000000000000000000000000000000000000000000000000000000000000 6
b000000000000000000000000000000000000000000000000000000000000000000 9
0<
0=
0>
0?
b00000000000000000000000000000000 @
0A
b00000 B
b000000 C
b00000000000000000000000000000000000000000000000000000 D
0F
b000000 ]
0^
b00000000000000000000000000000000000000000000000000000000000 [
b000000000000000000000000000000000000000000000000000000000000000 I
b0000000000000000000000000000000000000000000000000000000000000000 _
b00000 a
b00000 b
b0000000000000000000000000000000000000000000000000000000000000000 c
b0000000000000000000000000000000000000000000000000000000000000000 e
b0000000000000000000000000000000000000000000000000000000000000000 g
b0000000000000000000000000000000000000000000000000000000000000000 i
b0000000000000000000000000000000000000000000000000000000000000000 k
b0000000000000000000000000000000000000000000000000000000000000000 m
b0000000000000000000000000000000000000000000000000000000000000000 o
b0000000000000000000000000000000000000000000000000000000000000000 q
b0000000000000000000000000000000000000000000000000000000000000000 s
b0000000000000000000000000000000000000000000000000000000000000000 u
b0000000000000000000000000000000000000000000000000000000000000000 w
b0000000000000000000000000000000000000000000000000000000000000000 y
b0000000000000000000000000000000000000000000000000000000000000000 {
b0000000000000000000000000000000000000000000000000000000000000000 }
b0000000000000000000000000000000000000000000000000000000000000000 "!
b0000000000000000000000000000000000000000000000000000000000000000 "#
b0000000000000000000000000000000000000000000000000000000000000000 "%
b0000000000000000000000000000000000000000000000000000000000000000 "'
b0000000000000000000000000000000000000000000000000000000000000000 ")
b0000000000000000000000000000000000000000000000000000000000000000 "+
b0000000000000000000000000000000000000000000000000000000000000000 "-
b0000000000000000000000000000000000000000000000000000000000000000 "/
b0000000000000000000000000000000000000000000000000000000000000000 "1
b0000000000000000000000000000000000000000000000000000000000000000 "3
b0000000000000000000000000000000000000000000000000000000000000000 "5
b0000000000000000000000000000000000000000000000000000000000000000 "7
b0000000000000000000000000000000000000000000000000000000000000000 "9
b0000000000000000000000000000000000000000000000000000000000000000 ";
b0000000000000000000000000000000000000000000000000000000000000000 "=
b0000000000000000000000000000000000000000000000000000000000000000 "?
b0000000000000000000000000000000000000000000000000000000000000000 "A
b0000000000000000000000000000000000000000000000000000000000000000 "C
b00000000000000000000000000000000 H
b000000000000 "E
b00000000000000000000 "F
b0000000 "G
0G
b00000 "H
b0000000000000000000000000000000000000000000000000000000000000000 "I
0"K
b0000000000000000000000000000000000000000000000000000000000000000 "L
b0 K
b0000000000000000000000000000000000000000000000000000000000000100 "N
b00000000000000000000000000000000 M
b0000000000000000000000000000000000000000000000000000000000000000 N
b0000000000000000000000000000000000000000000000000000000000000000 P
b0000000000000000000000000000000000000000000000000000000000000000 R
b0000000000000000000000000000000000000000000000000000000000000000 T
0W
0X
b0000000000000000000000000000000000000000000000000000000000000000 Y
b0000000 "P
b00000 "Q
b000 "R
b0000000 "S
b000000 "T
b00000000000000000000000000000000000000000000000000000000000000000 "U
b000000000000000000000000000000000000000000000000000000000000000000 "X
0L
b00000 V
b0000000000000000000000000000000000000000000000000000000000000000 "f
b0000000000000000000000000000000000000000000000000000000000000000 "i
0"k
b0000000000000000000000000000000000000000000000000000000000000000 "l
b00000 "n
0"o
0"]
b0000000000000000000000000000000000000000000000000000000000000000000000000000000000000000000000000000000000000000000000000000000000000000000000000000000000000000000000000000000000000000000000000000000000000000000000000000000000000000000000000000000000000000 "^
b0 "h
1"[
1"\
b00000000000000000000000000111011 "q
b00000000000000000000000000100000 "r
b00000000000000000000000000111111 "s
b0000000000000000000000000000000000000000000000000000000000000000 "u
b00000000000000000000000001000000 "t
b0010011 "w
b0010111 "x
b0011011 "y
b0110011 "z
b0111011 "{
b1100011 "|
b1100111 "}
b1101111 "~
b010 ##
b011 #$
b000 #!
b001 #"
b100 #%
b101 #&
b110 #'
b111 #(
b0100000 #*
b000000 #+
b010000 #,
b0000000 #)
b00000000000000000000000000000001 "p
b00000000000000000000000001000001 #-
b00000000000000000000000001000010 #.
b00000000000000000000000000000101 #/
#1
0"[
#2
b00001 *
1A
b000001 ]
b1 K
1"[
0"\
#3
1F
0"[
#4
0A
1^
b0 K
1"]
b0011000000111111111011111110001110010111010000011110111011100011011001100011011010111110111011110000000110101011001111001011001101110010110000101111101001101111000011101010101000000100100100110110101110010100101010011110111100000001101001011110001100110011 "^
b1 "h
1"[
#5
1<
1=
1>
0"[
#6
1?
b00000001101001011110001100110011 @
0F
b0 "h
1"[
#7
0"[
#8
b0000000000000000000000000000000000000000000000000000000000011010 +
b0000000000110 -
b001011110000000011010 .
0?
0^
b01011 a
b11010 b
b00000001101001011110001100110011 H
b000000011010 "E
b00000001101001011110 "F
b0110011 "G
1G
1"[
#9
0"[
#10
1/
10
b000000000000000000000000000000000000000000000000000000000000000011 9
0G
b00110 "H
b00000001101001011110001100110011 M
b0000000000000000000000000000000000000000000000000000000000011010 P
b0110011 "P
b11010 "Q
b110 "R
b011010 "T
1L
1"[
#11
0"[
#12
b000000000000000000000000000000000000000000000000000000000000010 $
0/
b000000000000000000000000000000000000000000000000000000000000000010 9
1?
b01101011100101001010100111101111 @
b00100 B
b0000000000000000000000000000000000000000000000000000000000000100 "I
b1 K
1W
1X
b000000000000000000000000000000000000000000000000000000000000000011 "X
0L
b00110 V
1"k
b00110 "n
1"o
1"[
#13
0"[
#14
b0000000000000000000000000000000000000000000001001010111010111000 +
b0111010110010 -
b001001010111010111000 .
0?
b000000000000000000000000000000000000000000000000000000000000010 I
b0000000000000000000000000000000000000000000000000000000000000100 _
b01001 a
b11001 b
b01101011100101001010100111101111 H
b011010111001 "E
b01101011100101001010 "F
b1101111 "G
1G
b0 K
0W
b000000000000000000000000000000000000000000000000000000000000000010 "X
0"k
1"[
#15
0"[
#16
1/
b0000000000000000000000000000000000000000000000000000000000001000 1
13
b0000000000000000000000000000000000000000000001001010111010111100 4
b00000000000000000000000000000000000000000000010010101110101111001 6
b000000000000000000000000000000000000000000000000000000000000100011 9
0G
b10011 "H
b0000000000000000000000000000000000000000000000000000000000001000 "N
b01101011100101001010100111101111 M
b0000000000000000000000000000000000000000000000000000000000000100 N
b0000000000000000000000000000000000000000000001001010111010111000 P
b1101111 "P
b11001 "Q
b010 "R
b0110101 "S
b111001 "T
1L
b0000000000000000000000000000000000000000000000000000000000000100 "i
1"[
#17
0"[
#18
b00000000000000000000000000000000000000000000010010101110101 (
b000000000000000000000000000000000000000000000100101011101011110 $
0/
03
b00000000000000000000000000000000000000000000010010101110101111000 6
b000000000000000000000000000000000000000000000000000000000000100010 9
b00000000000000000000000000000000 @
1A
b11100 B
b110101 C
b00000000000000000000000000000000000000000000010010101 D
1F
b0000000000000000000000000000000000000000000000000000000000001000 "I
1"K
b0000000000000000000000000000000000000000000001001010111010111100 "L
b1 K
1W
b0000000000000000000000000000000000000000000000000000000000001000 Y
b00000000000000000000000000000000000000000000010010101110101111001 "U
b000000000000000000000000000000000000000000000000000000000000100011 "X
0L
b10011 V
1"k
b0000000000000000000000000000000000000000000000000000000000001000 "l
b10011 "n
1"[
#19
0"[
#20
b0000000000000000000000000000000000000000000000000000000000000000 +
b0000000000000 -
b000000000000000000000 .
1?
b00110000001111111110111111100011 @
0A
0F
1^
b00000000000000000000000000000000000000000000010010101110101 [
b000000000000000000000000000000000000000000000100101011101011110 I
b0000000000000000000000000000000000000000000001001010111010111100 _
b00000 a
b00000 b
b0000000000000000000000000000000000000000000000000000000000001000 "+
b00000000000000000000000000000000 H
b000000000000 "E
b00000000000000000000 "F
b0000000 "G
b0 K
0W
b000000000000000000000000000000000000000000000000000000000000100010 "X
b0000000000000000000000000000000000000000000001001010111010100000 "f
0"k
b1 "h
1"[
#21
0"[
#22
b0000000000000000000000000000000000000000000000000000101100011110 +
b0101100011110 -
b011111110101100000010 .
0?
0^
b11111 a
b00011 b
b00110000001111111110111111100011 H
b001100000011 "E
b00110000001111111110 "F
b1100011 "G
1G
b0 "h
1"[
#23
0"[
#24
b0000000000000000000000000000000000000000000001001011100111011010 4
b00000000000000000000000000000000000000000000010010111001110110100 6
0G
b11111 "H
b0000000000000000000000000000000000000000000001001010111011000000 "N
b00110000001111111110111111100011 M
b0000000000000000000000000000000000000000000001001010111010111100 N
b0000000000000000000000000000000000000000000000000000101100011110 P
b1100011 "P
b00011 "Q
b110 "R
b0011000 "S
b000011 "T
1L
b0000000000000000000000000000000000000000000001001010111010111100 "i
1"[
#25
0"[
#26
b00000000000000000000000000000000000000000000010010101110110 (
b000000000000000000000000000000000000000000000100101011101100000 $
b00000000000000000000000000000000 @
1A
b00000 B
b110110 C
1F
b0000000000000000000000000000000000000000000001001010111011000000 "I
0"K
b0000000000000000000000000000000000000000000001001011100111011010 "L
b1 K
b00000000000000000000000000000000000000000000010010111001110110100 "U
0L
b11111 V
b11111 "n
1"[
#27
0"[
#28
b0000000000000000000000000000000000000000000000000000000000000000 +
b0000000000000 -
b000000000000000000000 .
1?
b00000001101001011110001100110011 @
0A
0F
1^
b00000000000000000000000000000000000000000000010010101110110 [
b000000000000000000000000000000000000000000000100101011101100000 I
b0000000000000000000000000000000000000000000001001010111011000000 _
b00000 a
b00000 b
b00000000000000000000000000000000 H
b000000000000 "E
b00000000000000000000 "F
b0000000 "G
b0 K
b0000000000000000000000000000000000000000000001001010111011000000 "f
b1 "h
1"[
#29
0"[
#30
b0000000000000000000000000000000000000000000000000000000000011010 +
b0000000000110 -
b001011110000000011010 .
0?
0^
b01011 a
b11010 b
b00000001101001011110001100110011 H
b000000011010 "E
b00000001101001011110 "F
b0110011 "G
1G
b0 "h
1"[
#31
0"[
#32
1/
b0000000000000000000000000000000000000000000000000000000000000000 1
b000000000000000000000000000000000000000000000000000000000000000011 9
0G
b00110 "H
b0000000000000000000000000000000000000000000001001010111011000100 "N
b00000001101001011110001100110011 M
b0000000000000000000000000000000000000000000001001010111011000000 N
b0000000000000000000000000000000000000000000000000000000000011010 P
b0110011 "P
b11010 "Q
b0000000 "S
b011010 "T
1L
b0000000000000000000000000000000000000000000001001010111011000000 "i
1"[
#33
0"[
#34
b000000000000000000000000000000000000000000000100101011101100010 $
0/
b000000000000000000000000000000000000000000000000000000000000000010 9
1?
b01101011100101001010100111101111 @
b00100 B
b0000000000000000000000000000000000000000000001001010111011000100 "I
b1 K
1W
b0000000000000000000000000000000000000000000000000000000000000000 Y
b000000000000000000000000000000000000000000000000000000000000000011 "X
0L
b00110 V
1"k
b0000000000000000000000000000000000000000000000000000000000000000 "l
b00110 "n
1"[
#35
0"[
#36
b0000000000000000000000000000000000000000000001001010111010111000 +
b0111010110010 -
b001001010111010111000 .
0?
b000000000000000000000000000000000000000000000100101011101100010 I
b0000000000000000000000000000000000000000000001001010111011000100 _
b01001 a
b11001 b
b01101011100101001010100111101111 H
b011010111001 "E
b01101011100101001010 "F
b1101111 "G
1G
b0 K
0W
b000000000000000000000000000000000000000000000000000000000000000010 "X
0"k
1"[
#37
0"[
#38
1/
b0000000000000000000000000000000000000000000001001010111011001000 1
13
b0000000000000000000000000000000000000000000010010101110101111100 4
b00000000000000000000000000000000000000000000100101011101011111001 6
b000000000000000000000000000000000000000000000100101011101100100011 9
0G
b10011 "H
b0000000000000000000000000000000000000000000001001010111011001000 "N
b01101011100101001010100111101111 M
b0000000000000000000000000000000000000000000001001010111011000100 N
b0000000000000000000000000000000000000000000001001010111010111000 P
b1101111 "P
b11001 "Q
b010 "R
b0110101 "S
b111001 "T
1L
b0000000000000000000000000000000000000000000001001010111011000100 "i
1"[
#39
0"[
#40
b00000000000000000000000000000000000000000000100101011101011 (
b000000000000000000000000000000000000000000001001010111010111110 $
0/
03
b00000000000000000000000000000000000000000000100101011101011111000 6
b000000000000000000000000000000000000000000000100101011101100100010 9
b00000000000000000000000000000000 @
1A
b11100 B
b101011 C
b00000000000000000000000000000000000000000000100101011 D
1F
b0000000000000000000000000000000000000000000001001010111011001000 "I
1"K
b0000000000000000000000000000000000000000000010010101110101111100 "L
b1 K
1W
b0000000000000000000000000000000000000000000001001010111011001000 Y
b00000000000000000000000000000000000000000000100101011101011111001 "U
b000000000000000000000000000000000000000000000100101011101100100011 "X
0L
b10011 V
1"k
b0000000000000000000000000000000000000000000001001010111011001000 "l
b10011 "n
1"[
#41
0"[
#42
b0000000000000000000000000000000000000000000000000000000000000000 +
b0000000000000 -
b000000000000000000000 .
1?
b00110000001111111110111111100011 @
0A
0F
1^
b00000000000000000000000000000000000000000000100101011101011 [
b000000000000000000000000000000000000000000001001010111010111110 I
b0000000000000000000000000000000000000000000010010101110101111100 _
b00000 a
b00000 b
b0000000000000000000000000000000000000000000001001010111011001000 "+
b00000000000000000000000000000000 H
b000000000000 "E
b00000000000000000000 "F
b0000000 "G
b0 K
0W
b000000000000000000000000000000000000000000000100101011101100100010 "X
b0000000000000000000000000000000000000000000010010101110101100000 "f
0"k
b1 "h
1"[
#43
0"[
#44
b0000000000000000000000000000000000000000000000000000101100011110 +
b0101100011110 -
b011111110101100000010 .
0?
0^
b11111 a
b00011 b
b00110000001111111110111111100011 H
b001100000011 "E
b00110000001111111110 "F
b1100011 "G
1G
b0 "h
1"[
#45
0"[
#46
b0000000000000000000000000000000000000000000010010110100010011010 4
b00000000000000000000000000000000000000000000100101101000100110100 6
0G
b11111 "H
b0000000000000000000000000000000000000000000010010101110110000000 "N
b00110000001111111110111111100011 M
b0000000000000000000000000000000000000000000010010101110101111100 N
b0000000000000000000000000000000000000000000000000000101100011110 P
b1100011 "P
b00011 "Q
b110 "R
b0011000 "S
b000011 "T
1L
b0000000000000000000000000000000000000000000010010101110101111100 "i
1"[
#47
0"[
